{
    "compilerOptions": {
        "checkJs": true,
        "module": "ESNext",
        "moduleResolution": "Node",
        "target": "ES2020",
        "jsx": "react",
        "allowImportingTsExtensions": true,
        "strictNullChecks": true,
        "strictFunctionTypes": true,
        "allowUmdGlobalAccess": true
    },
    "exclude": ["node_modules", "**/node_modules/*"]
}
